{
    "count": 367,
    "next": "https://lldev.thespacedevs.com/2.3.0/launches/?events=upcoming&format=json&limit=10&mode=list&offset=10",
    "previous": null,
    "results": [
        {
            "id": "6159729f-70fd-4817-9223-b250dca18f5f",
            "url": "https://lldev.thespacedevs.com/2.3.0/launches/6159729f-70fd-4817-9223-b250dca18f5f/?format=json",
            "name": "Falcon 9 Block 5 | Starlink Group 6-27",
            "response_mode": "list",
            "slug": "falcon-9-block-5-starlink-group-6-27",
            "launch_designator": "2023-171",
            "status": {
                "id": 3,
                "name": "Launch Successful",
                "abbrev": "Success",
                "description": "The launch vehicle successfully inserted its payload(s) into the target orbit(s)."
            },
            "last_updated": "2024-03-05T17:36:44Z",
            "net": "2023-11-08T05:05:30Z",
            "net_precision": {
                "id": 0,
                "name": "Second",
                "abbrev": "SEC",
                "description": "The T-0 is accurate to the second."
            },
            "window_end": "2023-11-08T07:59:10Z",
            "window_start": "2023-11-08T04:31:00Z",
            "image": {
                "id": 1296,
                "name": "Starlink night fairing",
                "image_url": "https://thespacedevs-prod.nyc3.digitaloceanspaces.com/media/images/falcon2520925_image_20221009234147.png",
                "thumbnail_url": "https://thespacedevs-prod.nyc3.digitaloceanspaces.com/media/images/255bauto255d__image_thumbnail_20240305192320.png",
                "credit": "SpaceX",
                "license": {
                    "id": 5,
                    "name": "CC BY-NC 2.0",
                    "priority": 1,
                    "link": "https://creativecommons.org/licenses/by-nc/2.0/"
                },
                "single_use": false,
                "variants": []
            },
            "infographic": null
        },
        {
            "id": "b9022a14-f0a3-4bf6-88eb-f1de046b903c",
            "url": "https://lldev.thespacedevs.com/2.3.0/launches/b9022a14-f0a3-4bf6-88eb-f1de046b903c/?format=json",
            "name": "Long March 3B/E | ChinaSat 6E",
            "response_mode": "list",
            "slug": "long-march-3be-chinasat-6e",
            "launch_designator": "2023-172",
            "status": {
                "id": 3,
                "name": "Launch Successful",
                "abbrev": "Success",
                "description": "The launch vehicle successfully inserted its payload(s) into the target orbit(s)."
            },
            "last_updated": "2024-03-05T17:54:04Z",
            "net": "2023-11-09T11:23:00Z",
            "net_precision": {
                "id": 1,
                "name": "Minute",
                "abbrev": "MIN",
                "description": "The T-0 is accurate to the minute."
            },
            "window_end": "2023-11-09T13:28:00Z",
            "window_start": "2023-11-09T11:13:00Z",
            "image": {
                "id": 1462,
                "name": "[AUTO] Long March 3B/E | ChinaSat 6E - image",
                "image_url": "https://thespacedevs-prod.nyc3.digitaloceanspaces.com/media/images/long2520march_image_20231109195757.jpeg",
                "thumbnail_url": "https://thespacedevs-prod.nyc3.digitaloceanspaces.com/media/images/255bauto255d__image_thumbnail_20240305192835.jpeg",
                "credit": null,
                "license": {
                    "id": 1,
                    "name": "Unknown",
                    "priority": 9,
                    "link": null
                },
                "single_use": true,
                "variants": []
            },
            "infographic": null
        },
        {
            "id": "63076c5e-d16c-4f16-a6ac-2709fd5fab01",
            "url": "https://lldev.thespacedevs.com/2.3.0/launches/63076c5e-d16c-4f16-a6ac-2709fd5fab01/?format=json",
            "name": "Falcon 9 Block 5 | Dragon CRS-2 SpX-29",
            "response_mode": "list",
            "slug": "falcon-9-block-5-dragon-crs-2-spx-29",
            "launch_designator": "2023-173",
            "status": {
                "id": 3,
                "name": "Launch Successful",
                "abbrev": "Success",
                "description": "The launch vehicle successfully inserted its payload(s) into the target orbit(s)."
            },
            "last_updated": "2024-03-05T18:38:41Z",
            "net": "2023-11-10T01:28:14Z",
            "net_precision": {
                "id": 0,
                "name": "Second",
                "abbrev": "SEC",
                "description": "The T-0 is accurate to the second."
            },
            "window_end": "2023-11-10T01:28:14Z",
            "window_start": "2023-11-10T01:28:14Z",
            "image": {
                "id": 1426,
                "name": "CRS-29 F9B5 on the pad",
                "image_url": "https://thespacedevs-prod.nyc3.digitaloceanspaces.com/media/images/falcon2520925_image_20231108230257.jpeg",
                "thumbnail_url": "https://thespacedevs-prod.nyc3.digitaloceanspaces.com/media/images/255bauto255d__image_thumbnail_20240305192727.jpeg",
                "credit": "SpaceX",
                "license": {
                    "id": 5,
                    "name": "CC BY-NC 2.0",
                    "priority": 1,
                    "link": "https://creativecommons.org/licenses/by-nc/2.0/"
                },
                "single_use": true,
                "variants": []
            },
            "infographic": null
        },
        {
            "id": "a4a7fa7f-f3d9-467e-ac58-6e577155a969",
            "url": "https://lldev.thespacedevs.com/2.3.0/launches/a4a7fa7f-f3d9-467e-ac58-6e577155a969/?format=json",
            "name": "Falcon 9 Block 5 | Transporter 9 (Dedicated SSO Rideshare)",
            "response_mode": "list",
            "slug": "falcon-9-block-5-transporter-9-dedicated-sso-rides",
            "launch_designator": "2023-174",
            "status": {
                "id": 3,
                "name": "Launch Successful",
                "abbrev": "Success",
                "description": "The launch vehicle successfully inserted its payload(s) into the target orbit(s)."
            },
            "last_updated": "2024-03-05T17:46:08Z",
            "net": "2023-11-11T18:49:00Z",
            "net_precision": {
                "id": 0,
                "name": "Second",
                "abbrev": "SEC",
                "description": "The T-0 is accurate to the second."
            },
            "window_end": "2023-11-11T19:44:00Z",
            "window_start": "2023-11-11T18:49:00Z",
            "image": {
                "id": 1463,
                "name": "[AUTO] Falcon 9 Block 5 | Transporter 9 (Dedicated SSO Rideshare) - image",
                "image_url": "https://thespacedevs-prod.nyc3.digitaloceanspaces.com/media/images/falcon2520925_image_20231112140404.jpeg",
                "thumbnail_url": "https://thespacedevs-prod.nyc3.digitaloceanspaces.com/media/images/255bauto255d__image_thumbnail_20240305192837.jpeg",
                "credit": null,
                "license": {
                    "id": 1,
                    "name": "Unknown",
                    "priority": 9,
                    "link": null
                },
                "single_use": true,
                "variants": []
            },
            "infographic": null
        },
        {
            "id": "0be2e9d6-50d5-49dc-b56c-a919b7e0dfd8",
            "url": "https://lldev.thespacedevs.com/2.3.0/launches/0be2e9d6-50d5-49dc-b56c-a919b7e0dfd8/?format=json",
            "name": "Falcon 9 Block 5 | O3b mPower 5 & 6",
            "response_mode": "list",
            "slug": "falcon-9-block-5-o3b-mpower-5-6",
            "launch_designator": "2023-175",
            "status": {
                "id": 3,
                "name": "Launch Successful",
                "abbrev": "Success",
                "description": "The launch vehicle successfully inserted its payload(s) into the target orbit(s)."
            },
            "last_updated": "2024-03-05T18:39:12Z",
            "net": "2023-11-12T21:08:00Z",
            "net_precision": {
                "id": 1,
                "name": "Minute",
                "abbrev": "MIN",
                "description": "The T-0 is accurate to the minute."
            },
            "window_end": "2023-11-12T22:37:00Z",
            "window_start": "2023-11-12T21:08:00Z",
            "image": {
                "id": 1526,
                "name": "[AUTO] Falcon 9 Block 5 | O3b mPower 5 & 6 - image",
                "image_url": "https://thespacedevs-prod.nyc3.digitaloceanspaces.com/media/images/falcon2520925_image_20231113051301.jpeg",
                "thumbnail_url": "https://thespacedevs-prod.nyc3.digitaloceanspaces.com/media/images/255bauto255d__image_thumbnail_20240305193038.jpeg",
                "credit": null,
                "license": {
                    "id": 1,
                    "name": "Unknown",
                    "priority": 9,
                    "link": null
                },
                "single_use": true,
                "variants": []
            },
            "infographic": null
        },
        {
            "id": "05200b45-25bf-44b9-aafc-1ab77d80bb17",
            "url": "https://lldev.thespacedevs.com/2.3.0/launches/05200b45-25bf-44b9-aafc-1ab77d80bb17/?format=json",
            "name": "Long March 2C/YZ-1S | Haiyang 3-01",
            "response_mode": "list",
            "slug": "long-march-2cyz-1s-haiyang-3-01",
            "launch_designator": "2023-176",
            "status": {
                "id": 3,
                "name": "Launch Successful",
                "abbrev": "Success",
                "description": "The launch vehicle successfully inserted its payload(s) into the target orbit(s)."
            },
            "last_updated": "2024-03-05T18:02:32Z",
            "net": "2023-11-16T03:55:00Z",
            "net_precision": {
                "id": 1,
                "name": "Minute",
                "abbrev": "MIN",
                "description": "The T-0 is accurate to the minute."
            },
            "window_end": "2023-11-16T04:17:00Z",
            "window_start": "2023-11-16T03:49:00Z",
            "image": {
                "id": 1414,
                "name": "[AUTO] Long March 2C/YZ-1S | Haiyang 3-01 - image",
                "image_url": "https://thespacedevs-prod.nyc3.digitaloceanspaces.com/media/images/long2520march_image_20231116083954.jpg",
                "thumbnail_url": "https://thespacedevs-prod.nyc3.digitaloceanspaces.com/media/images/255bauto255d__image_thumbnail_20240305192704.jpeg",
                "credit": null,
                "license": {
                    "id": 1,
                    "name": "Unknown",
                    "priority": 9,
                    "link": null
                },
                "single_use": true,
                "variants": []
            },
            "infographic": null
        },
        {
            "id": "dc5c0513-9c1e-416d-8675-6e83187a4c07",
            "url": "https://lldev.thespacedevs.com/2.3.0/launches/dc5c0513-9c1e-416d-8675-6e83187a4c07/?format=json",
            "name": "Falcon 9 Block 5 | Starlink Group 6-28",
            "response_mode": "list",
            "slug": "falcon-9-block-5-starlink-group-6-28",
            "launch_designator": "2023-177",
            "status": {
                "id": 3,
                "name": "Launch Successful",
                "abbrev": "Success",
                "description": "The launch vehicle successfully inserted its payload(s) into the target orbit(s)."
            },
            "last_updated": "2024-03-05T17:32:58Z",
            "net": "2023-11-18T05:05:50Z",
            "net_precision": {
                "id": 0,
                "name": "Second",
                "abbrev": "SEC",
                "description": "The T-0 is accurate to the second."
            },
            "window_end": "2023-11-18T07:59:30Z",
            "window_start": "2023-11-18T04:00:50Z",
            "image": {
                "id": 1296,
                "name": "Starlink night fairing",
                "image_url": "https://thespacedevs-prod.nyc3.digitaloceanspaces.com/media/images/falcon2520925_image_20221009234147.png",
                "thumbnail_url": "https://thespacedevs-prod.nyc3.digitaloceanspaces.com/media/images/255bauto255d__image_thumbnail_20240305192320.png",
                "credit": "SpaceX",
                "license": {
                    "id": 5,
                    "name": "CC BY-NC 2.0",
                    "priority": 1,
                    "link": "https://creativecommons.org/licenses/by-nc/2.0/"
                },
                "single_use": false,
                "variants": []
            },
            "infographic": null
        },
        {
            "id": "04b91bb8-38a7-4868-b025-4bbe05d1fbfe",
            "url": "https://lldev.thespacedevs.com/2.3.0/launches/04b91bb8-38a7-4868-b025-4bbe05d1fbfe/?format=json",
            "name": "Starship | Integrated Flight Test 2",
            "response_mode": "list",
            "slug": "starship-integrated-flight-test-2",
            "launch_designator": null,
            "status": {
                "id": 7,
                "name": "Launch was a Partial Failure",
                "abbrev": "Partial Failure",
                "description": "Either the launch vehicle reached orbit but did not deliver its payload in the targeted orbit, or an exceptional event made it impossible to consider the mission a success."
            },
            "last_updated": "2024-03-05T18:38:24Z",
            "net": "2023-11-18T13:02:50Z",
            "net_precision": {
                "id": 0,
                "name": "Second",
                "abbrev": "SEC",
                "description": "The T-0 is accurate to the second."
            },
            "window_end": "2023-11-18T13:20:00Z",
            "window_start": "2023-11-18T13:00:00Z",
            "image": {
                "id": 1326,
                "name": "Starship liftoff (IFT-2)",
                "image_url": "https://thespacedevs-prod.nyc3.digitaloceanspaces.com/media/images/starship25202_image_20231118150751.jpeg",
                "thumbnail_url": "https://thespacedevs-prod.nyc3.digitaloceanspaces.com/media/images/255bauto255d__image_thumbnail_20240305192418.jpeg",
                "credit": "SpaceX",
                "license": {
                    "id": 5,
                    "name": "CC BY-NC 2.0",
                    "priority": 1,
                    "link": "https://creativecommons.org/licenses/by-nc/2.0/"
                },
                "single_use": true,
                "variants": []
            },
            "infographic": "https://thespacedevs-prod.nyc3.digitaloceanspaces.com/media/infographic_images/starship25202_infographic_20231115220404.png"
        },
        {
            "id": "a6e6b618-51f7-41ba-a8d3-0d375ba4530a",
            "url": "https://lldev.thespacedevs.com/2.3.0/launches/a6e6b618-51f7-41ba-a8d3-0d375ba4530a/?format=json",
            "name": "Falcon 9 Block 5 | Starlink Group 7-7",
            "response_mode": "list",
            "slug": "falcon-9-block-5-starlink-group-7-7",
            "launch_designator": "2023-178",
            "status": {
                "id": 3,
                "name": "Launch Successful",
                "abbrev": "Success",
                "description": "The launch vehicle successfully inserted its payload(s) into the target orbit(s)."
            },
            "last_updated": "2024-03-05T17:56:50Z",
            "net": "2023-11-20T10:30:40Z",
            "net_precision": {
                "id": 0,
                "name": "Second",
                "abbrev": "SEC",
                "description": "The T-0 is accurate to the second."
            },
            "window_end": "2023-11-20T10:30:40Z",
            "window_start": "2023-11-20T06:33:30Z",
            "image": {
                "id": 1296,
                "name": "Starlink night fairing",
                "image_url": "https://thespacedevs-prod.nyc3.digitaloceanspaces.com/media/images/falcon2520925_image_20221009234147.png",
                "thumbnail_url": "https://thespacedevs-prod.nyc3.digitaloceanspaces.com/media/images/255bauto255d__image_thumbnail_20240305192320.png",
                "credit": "SpaceX",
                "license": {
                    "id": 5,
                    "name": "CC BY-NC 2.0",
                    "priority": 1,
                    "link": "https://creativecommons.org/licenses/by-nc/2.0/"
                },
                "single_use": false,
                "variants": []
            },
            "infographic": null
        },
        {
            "id": "b16513d8-1821-4418-8d06-dc821ec1808c",
            "url": "https://lldev.thespacedevs.com/2.3.0/launches/b16513d8-1821-4418-8d06-dc821ec1808c/?format=json",
            "name": "Chollima-1 | Malligyong-1c",
            "response_mode": "list",
            "slug": "chollima-1-malligyong-1c",
            "launch_designator": "2023-179",
            "status": {
                "id": 3,
                "name": "Launch Successful",
                "abbrev": "Success",
                "description": "The launch vehicle successfully inserted its payload(s) into the target orbit(s)."
            },
            "last_updated": "2024-09-19T16:53:00Z",
            "net": "2023-11-21T13:42:58Z",
            "net_precision": {
                "id": 0,
                "name": "Second",
                "abbrev": "SEC",
                "description": "The T-0 is accurate to the second."
            },
            "window_end": "2023-11-21T13:42:58Z",
            "window_start": "2023-11-21T13:42:58Z",
            "image": {
                "id": 2216,
                "name": "Chollima-1 liftoff (Malligyong-1c)",
                "image_url": "https://thespacedevs-prod.nyc3.digitaloceanspaces.com/media/images/chollima-1_lift_image_20240919165247.jpeg",
                "thumbnail_url": "https://thespacedevs-prod.nyc3.digitaloceanspaces.com/media/images/chollima-1_lift_image_thumbnail_20240919165248.jpeg",
                "credit": "KCNA",
                "license": {
                    "id": 1,
                    "name": "Unknown",
                    "priority": 9,
                    "link": null
                },
                "single_use": false,
                "variants": []
            },
            "infographic": null
        }
    ]
}

